1BAMRVECA    C174             000000DOMICJ0306873660000000010000000000000100020171127010501342711340369060000000000000000000000000010000000000000100000000000000000000000000000000000000000000000000000000000000
2V0013684680001050113070113287747      000013684680                 00000000000002850                              13684680         0000000000000140201711150021CREARIA SALDO NEGATIVO        15720262       0000000000000000                                   
2V0013684680001050113070113287747      000013684680                 00000000000002850                              13684680         0000000000000140201711160021CREARIA SALDO NEGATIVO        15720263       0000000000000000                                   
2V0013684680001050113070113287747      000013684680                 00000000000002850                              13684680         0000000000000140201711170021CREARIA SALDO NEGATIVO        15720264       0000000000000000                                   
2V0013684680001050113070113287747      000013684680                 00000000000002850                              13684680         0000000000000140201711190021CREARIA SALDO NEGATIVO        15720265       0000000000000000                                   
2V0005184842001050047810047395524      00005184842                  00000000000003300                              5184842          0000000000000140201711120021CREARIA SALDO NEGATIVO        15720266       0000000000000000                                   