{
    "name": "Empresa",
    "alias": "empresa",
    "description": "",
    "keywords": [],
    "active": 1,
    "order": 1,
    "providers": [
        "App\\Modules\\Empresa\\Providers\\EmpresaServiceProvider"
    ],
    "aliases": {},
    "files": [
        "start.php"
    ],
    "requires": []
}
